Lowest cost is 8796
Lowest cost is 8528
Lowest cost is 9270
Lowest cost is 9764
Lowest cost is 9113
Lowest cost is 9092
Lowest cost is 8888
Lowest cost is 9315
Lowest cost is 10068
Lowest cost is 8993
Lowest cost is 9228
Lowest cost is 9199
Lowest cost is 9160
Lowest cost is 9223
Lowest cost is 9196
Lowest cost is 8951
Lowest cost is 8427
Lowest cost is 8739
Lowest cost is 9344
Lowest cost is 9230
Lowest cost is 9095
Lowest cost is 8803
Lowest cost is 8948
Lowest cost is 8757
Lowest cost is 9416
Lowest cost is 9457
Lowest cost is 9392
Lowest cost is 9019
Lowest cost is 8921
Lowest cost is 9019
Lowest cost is 9428
Lowest cost is 9192
Lowest cost is 9193
Lowest cost is 9416
Lowest cost is 9049
Lowest cost is 9047
Lowest cost is 9447
Lowest cost is 9299
Lowest cost is 9221
Lowest cost is 9227
Lowest cost is 9562
Lowest cost is 9341
Lowest cost is 9917
Lowest cost is 9028
Lowest cost is 9776
Lowest cost is 8851
Lowest cost is 8809
Lowest cost is 9198
Lowest cost is 8710
Lowest cost is 8642
Lowest cost is 9370
Lowest cost is 8946
Lowest cost is 8605
Lowest cost is 8904
Lowest cost is 8883
Lowest cost is 9095
Lowest cost is 9062
Lowest cost is 9539
Lowest cost is 9297
Lowest cost is 9253
Lowest cost is 9531
Lowest cost is 9238
Lowest cost is 9200
Lowest cost is 9327
Lowest cost is 8704
Lowest cost is 9080
Lowest cost is 9063
Lowest cost is 9337
Lowest cost is 9622
Lowest cost is 9181
Lowest cost is 8791
Lowest cost is 8654
Lowest cost is 9414
Lowest cost is 9404
Lowest cost is 9450
Lowest cost is 9347
Lowest cost is 9285
Lowest cost is 9643
Lowest cost is 9149
Lowest cost is 8845
Lowest cost is 8643
Lowest cost is 8910
Lowest cost is 9007
Lowest cost is 9175
Lowest cost is 9306
Lowest cost is 9353
Lowest cost is 8931
Lowest cost is 9041
Lowest cost is 8858
Lowest cost is 8990
Lowest cost is 8587
Lowest cost is 9179
Lowest cost is 8877
Lowest cost is 9267
Lowest cost is 9129
Lowest cost is 8935
Lowest cost is 9208
Lowest cost is 9475
Lowest cost is 8466
Lowest cost is 8762


Average cost in 100 runs is 9130