k= 1, [0 0 1 1 0 0 0 1 0 0 0 0 0 1 1 0 0 1 1 0 ], value=329, weight= 426, computationTime=2 milliseconds;
k= 101, [0 1 0 0 1 0 1 0 1 0 0 0 1 0 1 1 0 1 0 0 ], value=350, weight= 244, computationTime=0 milliseconds;
k= 201, [0 0 0 0 1 1 1 1 0 1 0 0 0 0 0 0 0 1 0 1 ], value=355, weight= 370, computationTime=0 milliseconds;
k= 301, [1 0 0 1 0 0 1 1 0 1 0 0 1 0 0 1 0 0 1 0 ], value=473, weight= 460, computationTime=0 milliseconds;
k= 401, [0 0 1 1 1 1 0 1 0 0 0 0 0 1 0 0 1 0 0 0 ], value=338, weight= 523, computationTime=0 milliseconds;
k= 501, [1 0 1 1 0 1 1 0 1 0 1 0 0 1 1 0 1 0 0 0 ], value=368, weight= 497, computationTime=0 milliseconds;
k= 601, [1 1 1 1 0 0 0 1 1 0 1 1 1 0 1 0 0 0 0 1 ], value=465, weight= 515, computationTime=0 milliseconds;
k= 701, [1 0 0 0 0 0 1 0 1 0 1 0 0 0 1 0 0 1 1 0 ], value=309, weight= 223, computationTime=0 milliseconds;
k= 801, [0 0 1 0 1 0 0 0 0 0 0 0 0 0 1 1 1 1 1 0 ], value=447, weight= 345, computationTime=0 milliseconds;
k= 901, [1 0 0 0 0 0 0 0 0 1 1 0 1 1 1 1 0 1 0 0 ], value=410, weight= 372, computationTime=0 milliseconds;
Conclusions:
best result at:k= 253, [1 0 0 0 1 1 0 0 0 1 0 1 1 0 1 1 0 1 1 1 ], value=683, weight= 503, computationTime=0 milliseconds;

