Lowest cost is 6771
Lowest cost is 6976
Lowest cost is 6614
Lowest cost is 6481
Lowest cost is 6318
Lowest cost is 6473
Lowest cost is 6238
Lowest cost is 6464
Lowest cost is 6737
Lowest cost is 6335
Lowest cost is 6724
Lowest cost is 6831
Lowest cost is 6414
Lowest cost is 6577
Lowest cost is 6420
Lowest cost is 7107
Lowest cost is 7074
Lowest cost is 6603
Lowest cost is 6422
Lowest cost is 6605
Lowest cost is 6467
Lowest cost is 6907
Lowest cost is 6081
Lowest cost is 6859
Lowest cost is 7029
Lowest cost is 6306
Lowest cost is 6307
Lowest cost is 6844
Lowest cost is 6459
Lowest cost is 6978
Lowest cost is 6734
Lowest cost is 6599
Lowest cost is 6613
Lowest cost is 6274
Lowest cost is 6669
Lowest cost is 6638
Lowest cost is 6557
Lowest cost is 6799
Lowest cost is 6295
Lowest cost is 6551
Lowest cost is 6687
Lowest cost is 6630
Lowest cost is 6198
Lowest cost is 6941
Lowest cost is 6303
Lowest cost is 6808
Lowest cost is 7065
Lowest cost is 6561
Lowest cost is 6647
Lowest cost is 6480
Lowest cost is 6891
Lowest cost is 6549
Lowest cost is 6972
Lowest cost is 6886
Lowest cost is 6747
Lowest cost is 6950
Lowest cost is 6997
Lowest cost is 6475
Lowest cost is 7191
Lowest cost is 6745
Lowest cost is 6739
Lowest cost is 6773
Lowest cost is 6427
Lowest cost is 6698
Lowest cost is 6726
Lowest cost is 6618
Lowest cost is 6213
Lowest cost is 6403
Lowest cost is 6546
Lowest cost is 6648
Lowest cost is 6721
Lowest cost is 6366
Lowest cost is 6123
Lowest cost is 6750
Lowest cost is 6226
Lowest cost is 6460
Lowest cost is 6830
Lowest cost is 6776
Lowest cost is 6589
Lowest cost is 6504
Lowest cost is 6680
Lowest cost is 6640
Lowest cost is 6299
Lowest cost is 6683
Lowest cost is 6329
Lowest cost is 7045
Lowest cost is 6624
Lowest cost is 6528
Lowest cost is 6712
Lowest cost is 6430
Lowest cost is 6381
Lowest cost is 6654
Lowest cost is 6717
Lowest cost is 6866
Lowest cost is 6639
Lowest cost is 6666
Lowest cost is 6740
Lowest cost is 6545
Lowest cost is 6479
Lowest cost is 6881


Average cost in 100 runs is 6625