 Lowest cost is 6922
Lowest cost is 6754
Lowest cost is 6400
Lowest cost is 6602
Lowest cost is 6990
Lowest cost is 6998
Lowest cost is 6545
Lowest cost is 6636
Lowest cost is 6655
Lowest cost is 6468
Lowest cost is 6976
Lowest cost is 6511
Lowest cost is 6806
Lowest cost is 6903
Lowest cost is 7059
Lowest cost is 6512
Lowest cost is 6288
Lowest cost is 6406
Lowest cost is 6621
Lowest cost is 6692
Lowest cost is 6239
Lowest cost is 6696
Lowest cost is 6676
Lowest cost is 6929
Lowest cost is 6471
Lowest cost is 6785
Lowest cost is 6458
Lowest cost is 6379
Lowest cost is 6647
Lowest cost is 6739
Lowest cost is 6704
Lowest cost is 6686
Lowest cost is 6985
Lowest cost is 6376
Lowest cost is 6378
Lowest cost is 6599
Lowest cost is 6642
Lowest cost is 6485
Lowest cost is 6235
Lowest cost is 6340
Lowest cost is 6072
Lowest cost is 6564
Lowest cost is 6736
Lowest cost is 6696
Lowest cost is 6390
Lowest cost is 6467
Lowest cost is 6462
Lowest cost is 6396
Lowest cost is 6978
Lowest cost is 6392
Lowest cost is 6554
Lowest cost is 6852
Lowest cost is 6716
Lowest cost is 6609
Lowest cost is 6439
Lowest cost is 6572
Lowest cost is 6880
Lowest cost is 6364
Lowest cost is 6518
Lowest cost is 6450
Lowest cost is 6534
Lowest cost is 6855
Lowest cost is 6714
Lowest cost is 6621
Lowest cost is 6629
Lowest cost is 6737
Lowest cost is 6736
Lowest cost is 6845
Lowest cost is 6686
Lowest cost is 6682
Lowest cost is 6696
Lowest cost is 6769
Lowest cost is 6574
Lowest cost is 6921
Lowest cost is 6902
Lowest cost is 6929
Lowest cost is 6522
Lowest cost is 6921
Lowest cost is 6195
Lowest cost is 6542
Lowest cost is 6483
Lowest cost is 6736
Lowest cost is 6237
Lowest cost is 6468
Lowest cost is 6751
Lowest cost is 6462
Lowest cost is 6964
Lowest cost is 6805
Lowest cost is 6323
Lowest cost is 6425
Lowest cost is 6400
Lowest cost is 6713
Lowest cost is 6790
Lowest cost is 6866
Lowest cost is 6378
Lowest cost is 6688
Lowest cost is 6425
Lowest cost is 6788
Lowest cost is 6320
Lowest cost is 6530


Average cost in 100 runs is 6618